{
  "_class": "symbolInstance",
  "do_objectID": "B37D6E63-DED5-4E84-939A-726C03D118BE",
  "exportOptions": {
    "_class": "exportOptions",
    "exportFormats": [
    ],
    "includedLayerIds": [
    ],
    "layerOptions": 0,
    "shouldTrim": false
  },
  "frame": {
    "_class": "rect",
    "constrainProportions": false,
    "height": 32,
    "width": 52,
    "x": 0,
    "y": 0
  },
  "horizontalSpacing": 0,
  "isFlippedHorizontal": false,
  "isFlippedVertical": false,
  "isLocked": false,
  "isVisible": true,
  "layerListExpandedType": 0,
  "masterInfluenceEdgeMaxXPadding": 60,
  "masterInfluenceEdgeMaxYPadding": 520,
  "masterInfluenceEdgeMinXPadding": 674,
  "masterInfluenceEdgeMinYPadding": 256,
  "name": "topbar/molecules/plus-btn",
  "nameIsFixed": true,
  "resizingConstraint": 63,
  "resizingType": 0,
  "rotation": 0,
  "shouldBreakMaskChain": false,
  "style": {
    "_class": "style",
    "endDecorationType": 0,
    "miterLimit": 10,
    "startDecorationType": 0
  },
  "symbolID": "2BCCD238-2E7A-441A-9DA8-489219F488D7",
  "verticalSpacing": 0
}