{
  "_class": "group",
  "do_objectID": "CE5C198A-77CF-4AB0-8D96-382EA2F0EA8E",
  "exportOptions": {
    "_class": "exportOptions",
    "exportFormats": [
    ],
    "includedLayerIds": [
    ],
    "layerOptions": 0,
    "shouldTrim": false
  },
  "frame": {
    "_class": "rect",
    "constrainProportions": false,
    "height": 755,
    "width": 10,
    "x": 372.5,
    "y": -357
  },
  "hasClickThrough": false,
  "isFlippedHorizontal": false,
  "isFlippedVertical": false,
  "isLocked": false,
  "isVisible": true,
  "layerListExpandedType": 2,
  "layers": [
    {
      "class": "shapeGroup",
      "id": "B42628B8-C506-49FA-872A-A81EEF8A96A8"
    },
    {
      "class": "shapeGroup",
      "id": "345BC1F8-51FC-4FE2-8265-659384A4F76F"
    },
    {
      "class": "shapeGroup",
      "id": "CEB46C30-9EAC-4F5E-AD3E-78CA1ACF1B3D"
    }
  ],
  "name": "milestone",
  "nameIsFixed": true,
  "resizingConstraint": 63,
  "resizingType": 0,
  "rotation": 90,
  "shouldBreakMaskChain": false,
  "style": {
    "_class": "style",
    "endDecorationType": 0,
    "miterLimit": 10,
    "startDecorationType": 0
  }
}