{
  "_class": "shapePath",
  "booleanOperation": -1,
  "do_objectID": "46553402-5D09-4EAE-979C-023657859B4D",
  "edited": true,
  "exportOptions": {
    "_class": "exportOptions",
    "exportFormats": [
    ],
    "includedLayerIds": [
    ],
    "layerOptions": 0,
    "shouldTrim": false
  },
  "frame": {
    "_class": "rect",
    "constrainProportions": false,
    "height": 2,
    "width": 32,
    "x": 0,
    "y": -1.110223024625157e-16
  },
  "isFlippedHorizontal": false,
  "isFlippedVertical": false,
  "isLocked": false,
  "isVisible": true,
  "layerListExpandedType": 0,
  "name": "Path",
  "nameIsFixed": false,
  "path": {
    "_class": "path",
    "isClosed": false,
    "pointRadiusBehaviour": 1,
    "points": [
      {
        "_class": "curvePoint",
        "cornerRadius": 0,
        "curveFrom": "{0.062500000000000028, 1}",
        "curveMode": 1,
        "curveTo": "{0.062500000000000028, 1}",
        "hasCurveFrom": false,
        "hasCurveTo": false,
        "point": "{0, 0.5}"
      },
      {
        "_class": "curvePoint",
        "cornerRadius": 0,
        "curveFrom": "{0.09375, 1.5}",
        "curveMode": 1,
        "curveTo": "{0.09375, 1.5}",
        "hasCurveFrom": false,
        "hasCurveTo": false,
        "point": "{1, 0.5}"
      }
    ]
  },
  "resizingConstraint": 63,
  "resizingType": 0,
  "rotation": 0,
  "shouldBreakMaskChain": false
}