{
  "_class": "shapePath",
  "booleanOperation": -1,
  "do_objectID": "9AD1DD8B-FEA0-4AB0-913B-885DBED78677",
  "edited": true,
  "exportOptions": {
    "_class": "exportOptions",
    "exportFormats": [
    ],
    "includedLayerIds": [
    ],
    "layerOptions": 0,
    "shouldTrim": false
  },
  "frame": {
    "_class": "rect",
    "constrainProportions": false,
    "height": 7,
    "width": 12,
    "x": 0,
    "y": 7
  },
  "isFlippedHorizontal": false,
  "isFlippedVertical": false,
  "isLocked": false,
  "isVisible": true,
  "layerListExpandedType": 0,
  "name": "Path",
  "nameIsFixed": false,
  "path": {
    "_class": "path",
    "isClosed": true,
    "pointRadiusBehaviour": 1,
    "points": [
      {
        "_class": "curvePoint",
        "cornerRadius": 0,
        "curveFrom": "{0.0063252412308587606, 1}",
        "curveMode": 2,
        "curveTo": "{0.99367475876914124, 1}",
        "hasCurveFrom": true,
        "hasCurveTo": true,
        "point": "{0.5, 1}"
      },
      {
        "_class": "curvePoint",
        "cornerRadius": 0,
        "curveFrom": "{1.5216082715159461e-17, 0.39150251116070961}",
        "curveMode": 2,
        "curveTo": "{0, 0.8884974888392857}",
        "hasCurveFrom": true,
        "hasCurveTo": true,
        "point": "{0, 0.63999999999999757}"
      },
      {
        "_class": "curvePoint",
        "cornerRadius": 0,
        "curveFrom": "{0.91968653599125494, 0}",
        "curveMode": 2,
        "curveTo": "{0.080313464008742882, 0}",
        "hasCurveFrom": true,
        "hasCurveTo": true,
        "point": "{0.49999999999999883, 0}"
      },
      {
        "_class": "curvePoint",
        "cornerRadius": 0,
        "curveFrom": "{1, 0.8954380580357143}",
        "curveMode": 2,
        "curveTo": "{1, 0.38456194196427468}",
        "hasCurveFrom": true,
        "hasCurveTo": true,
        "point": "{1, 0.63999999999999446}"
      }
    ]
  },
  "resizingConstraint": 63,
  "resizingType": 0,
  "rotation": 0,
  "shouldBreakMaskChain": false
}