{
  "_class": "group",
  "do_objectID": "FFCA1EFD-B617-45C3-9EC6-B6D23787CA76",
  "exportOptions": {
    "_class": "exportOptions",
    "exportFormats": [
    ],
    "includedLayerIds": [
    ],
    "layerOptions": 0,
    "shouldTrim": false
  },
  "frame": {
    "_class": "rect",
    "constrainProportions": false,
    "height": 82,
    "width": 1295,
    "x": 344,
    "y": 71
  },
  "hasClickThrough": false,
  "isFlippedHorizontal": false,
  "isFlippedVertical": false,
  "isLocked": false,
  "isVisible": true,
  "layerListExpandedType": 0,
  "layers": [
    {
      "class": "shapeGroup",
      "id": "586E17E0-A6A7-436C-A823-1B3CDD18879C"
    },
    {
      "class": "shapeGroup",
      "id": "D35C27F4-AE96-4739-BA4B-1E03307B8DE6"
    },
    {
      "class": "symbolInstance",
      "id": "07911B4D-FED4-4E0B-AA12-81F7D0D8E4C6"
    },
    {
      "class": "symbolInstance",
      "id": "385F8D4C-4FF8-440B-AE42-0F3976750BAD"
    },
    {
      "class": "symbolInstance",
      "id": "EBDFB4DF-AD9B-4750-AD58-451C308D3027"
    },
    {
      "class": "symbolInstance",
      "id": "E07802E4-FE35-42CE-BF50-4FA5CA537A9D"
    },
    {
      "class": "shapeGroup",
      "id": "B0E99927-8C41-431E-98F1-7CABB9A090F2"
    },
    {
      "class": "symbolInstance",
      "id": "4388F9B1-4008-4329-9427-AEC17664B483"
    },
    {
      "class": "symbolInstance",
      "id": "672D741C-9E48-4DB9-B2FB-F5DB44134114"
    },
    {
      "class": "symbolInstance",
      "id": "FC1EBBCF-FC30-4F03-96C2-CC5E6E394CB4"
    },
    {
      "class": "symbolInstance",
      "id": "542D1EB8-5D43-4DF7-BDD5-B019BDF3C16D"
    },
    {
      "class": "symbolInstance",
      "id": "29F0BDF0-4855-4DF6-AFA4-042ACF66089A"
    },
    {
      "class": "symbolInstance",
      "id": "DFAEAB67-72D7-4167-8551-09A1619B2A67"
    },
    {
      "class": "symbolInstance",
      "id": "415A7AA3-BEDE-4591-98D2-23CCB75C7DAF"
    },
    {
      "class": "symbolInstance",
      "id": "E0B672A1-C2AB-43AD-A87F-03F7A4CFFB5A"
    },
    {
      "class": "symbolInstance",
      "id": "0B66C2DD-61F5-4CA2-B4A2-E9F17BD03DAF"
    },
    {
      "class": "symbolInstance",
      "id": "24316B14-120D-426C-90F0-6DDB2E298FDB"
    },
    {
      "class": "symbolInstance",
      "id": "ECE78EC1-5025-4508-AF21-D4EB43B804C1"
    },
    {
      "class": "symbolInstance",
      "id": "F7C8CD67-456B-4B34-ACB9-A56DF2E2F6E7"
    },
    {
      "class": "symbolInstance",
      "id": "0BD05101-60BC-4DF7-8729-0EE99C3053DC"
    },
    {
      "class": "symbolInstance",
      "id": "EF5585B2-C6F0-4323-82F2-3841DF1B4F5E"
    },
    {
      "class": "symbolInstance",
      "id": "1E46FD56-5E4A-4FE3-A2D9-14736CEFB16B"
    },
    {
      "class": "symbolInstance",
      "id": "454F7FA5-E098-403A-83A5-D2F70D2C4586"
    },
    {
      "class": "symbolInstance",
      "id": "0E9134CD-48CA-48EB-9B59-2401DF89F57C"
    },
    {
      "class": "symbolInstance",
      "id": "276B3416-9E1C-4586-8E97-A0AE14797FAB"
    },
    {
      "class": "symbolInstance",
      "id": "0A9AE942-D503-428A-AF24-6C6890D693C6"
    },
    {
      "class": "symbolInstance",
      "id": "C0A30FA1-C02B-4030-8B0B-DFDFBE86A313"
    },
    {
      "class": "symbolInstance",
      "id": "D0CC3E90-7FDB-4F3F-B8AC-B2885E93C627"
    },
    {
      "class": "symbolInstance",
      "id": "9C0CF14A-7FAF-4632-9AD0-C13DE67B8EAE"
    },
    {
      "class": "symbolInstance",
      "id": "394D93A9-1166-47B2-BAD1-5317AA21DB31"
    },
    {
      "class": "symbolInstance",
      "id": "10295269-3495-4C7D-A592-EB9AD25689AB"
    },
    {
      "class": "symbolInstance",
      "id": "99DF1BF9-7507-4C90-8D36-5D2ACE0840C5"
    },
    {
      "class": "symbolInstance",
      "id": "3089AA8B-7AE1-4606-9245-8E2119B7DCBC"
    },
    {
      "class": "symbolInstance",
      "id": "4D590F05-2F75-4C30-B64C-074D7A528811"
    },
    {
      "class": "symbolInstance",
      "id": "17BCDE47-FABD-4C1B-8856-C821AC796A2C"
    },
    {
      "class": "symbolInstance",
      "id": "9B28A06C-3F87-4F0B-AA2D-423F313F1145"
    },
    {
      "class": "symbolInstance",
      "id": "9AE6FDDE-CD56-49D5-8BBF-9BB41C2EF0A8"
    },
    {
      "class": "symbolInstance",
      "id": "449B4A42-5DCB-429E-8CE4-D35A0A85C5F9"
    },
    {
      "class": "symbolInstance",
      "id": "D1E13275-68B2-4A40-B538-F39463DD387B"
    },
    {
      "class": "symbolInstance",
      "id": "BBFE4AEF-78AA-47FE-82FE-C5EC62F88F67"
    },
    {
      "class": "symbolInstance",
      "id": "0F501A0B-32CC-4F69-A365-FB5C387FC71D"
    },
    {
      "class": "symbolInstance",
      "id": "3BAFC730-3622-4BA8-B876-D8E25D127DCA"
    },
    {
      "class": "symbolInstance",
      "id": "5D384254-539A-4137-982C-D6263B039E52"
    },
    {
      "class": "symbolInstance",
      "id": "9C6E9C0A-0F19-4EEA-9004-F8D86573632F"
    },
    {
      "class": "symbolInstance",
      "id": "7C554785-10F9-4F51-93E9-16A0E3158928"
    },
    {
      "class": "symbolInstance",
      "id": "4D2F09DC-A11B-4414-A237-662A6F1099D9"
    },
    {
      "class": "symbolInstance",
      "id": "D44AD44A-F117-4362-BEA7-499387998C91"
    },
    {
      "class": "symbolInstance",
      "id": "C6C38FFC-B86C-45A4-BDFC-5DB6931DC4D0"
    },
    {
      "class": "symbolInstance",
      "id": "5CEBA2D3-2C21-4BBF-BB61-1F0F6CFB5083"
    },
    {
      "class": "symbolInstance",
      "id": "CED71C2D-27E0-44A6-B887-035949592472"
    },
    {
      "class": "symbolInstance",
      "id": "92FAF348-232D-4E1B-8CD9-76A5B3168DFC"
    },
    {
      "class": "symbolInstance",
      "id": "F51DFFC5-4BD5-45DA-9604-A771467AF283"
    },
    {
      "class": "symbolInstance",
      "id": "1D8A5802-525C-4286-8236-5D46D08EEEC1"
    },
    {
      "class": "symbolInstance",
      "id": "402EEB5A-2264-4DF8-865B-F3D7B52589A0"
    },
    {
      "class": "symbolInstance",
      "id": "693ECF22-479B-487D-87F2-ECCBDF363553"
    },
    {
      "class": "symbolInstance",
      "id": "0303996D-8786-4E74-9D8B-8C9014326293"
    },
    {
      "class": "symbolInstance",
      "id": "26184C7B-6B02-486C-9A77-4D73794FF94F"
    },
    {
      "class": "symbolInstance",
      "id": "0B58281D-8029-44B9-B184-7E936253AA00"
    },
    {
      "class": "symbolInstance",
      "id": "169C99E0-81BC-4859-A3A7-840499C8A2CB"
    },
    {
      "class": "symbolInstance",
      "id": "7DCE5978-B8BA-485A-A4F3-0C3EFF17B12A"
    },
    {
      "class": "symbolInstance",
      "id": "528F3B61-8124-4F92-8256-2582532B0B19"
    }
  ],
  "name": "timeline",
  "nameIsFixed": true,
  "resizingConstraint": 63,
  "resizingType": 0,
  "rotation": 0,
  "shouldBreakMaskChain": false,
  "style": {
    "_class": "style",
    "endDecorationType": 0,
    "miterLimit": 10,
    "startDecorationType": 0
  }
}