{
  "_class": "artboard",
  "backgroundColor": {
    "_class": "color",
    "alpha": 1,
    "blue": 1,
    "green": 1,
    "red": 1
  },
  "do_objectID": "7F45FDAA-9D5B-4C43-A60A-9806744EF05C",
  "exportOptions": {
    "_class": "exportOptions",
    "exportFormats": [
    ],
    "includedLayerIds": [
    ],
    "layerOptions": 0,
    "shouldTrim": false
  },
  "frame": {
    "_class": "rect",
    "constrainProportions": false,
    "height": 800,
    "width": 1500,
    "x": 1768,
    "y": 861
  },
  "hasBackgroundColor": false,
  "hasClickThrough": true,
  "horizontalRulerData": {
    "_class": "rulerData",
    "base": 0,
    "guides": [
    ]
  },
  "includeBackgroundColorInExport": true,
  "includeInCloudUpload": true,
  "isFlippedHorizontal": false,
  "isFlippedVertical": false,
  "isLocked": false,
  "isVisible": true,
  "layerListExpandedType": 2,
  "layers": [
    {
      "class": "group",
      "id": "33F457D8-4F58-4508-8019-C39BEB089005"
    },
    {
      "class": "group",
      "id": "EF03AC3D-3339-4E69-8A84-F6813493BA14"
    },
    {
      "class": "bitmap",
      "id": "BC075195-C4A1-4972-8E54-9BAD521566B7"
    },
    {
      "class": "group",
      "id": "D37F37E5-0812-4D6D-BA39-492993A77E14"
    },
    {
      "class": "bitmap",
      "id": "AD39788E-5D87-4022-AEA4-DF074EB28D7E"
    },
    {
      "class": "shapeGroup",
      "id": "C0D572FF-F8EA-4BF7-ADA2-7D6CAF69476B"
    },
    {
      "class": "shapeGroup",
      "id": "6362D8D7-D2A8-434D-91B7-E5F609BF494B"
    },
    {
      "class": "text",
      "id": "CD991B25-DA98-4297-B5C2-C8F049BE113B"
    },
    {
      "class": "text",
      "id": "9245022A-F8E9-4696-91D2-6132D4CBFC60"
    },
    {
      "class": "group",
      "id": "6C000A13-7C1C-45BD-B67C-698A8B5DD909"
    },
    {
      "class": "group",
      "id": "ECB5CEDD-5C06-4A7D-B222-C6515F23C81E"
    },
    {
      "class": "group",
      "id": "12494232-1692-43E2-9558-989ABEFBEB19"
    },
    {
      "class": "text",
      "id": "D555A7F7-CF36-45AA-934C-E451E2A44B99"
    },
    {
      "class": "text",
      "id": "38F20229-3061-4A84-AD27-F5B7284E084C"
    },
    {
      "class": "text",
      "id": "00C84613-8FD5-47D2-ACF0-5E8A5B7223CB"
    },
    {
      "class": "text",
      "id": "92159EC2-9BA7-42C7-97C2-C792FEB3DEB4"
    },
    {
      "class": "text",
      "id": "B668A321-4BC1-4EB4-AB38-F0F48AC92998"
    },
    {
      "class": "symbolInstance",
      "id": "D8774764-0EE1-4FE0-82CB-ABEE953F8A91"
    },
    {
      "class": "group",
      "id": "2714D123-04D0-426C-9EA1-6BE47DC47478"
    },
    {
      "class": "group",
      "id": "343F74E8-7847-4B07-8142-552AFDCDE1A5"
    },
    {
      "class": "group",
      "id": "9D27CCF6-FC52-45BA-9D49-D1654E7768DB"
    },
    {
      "class": "group",
      "id": "23ED34C3-517D-4601-A93C-EDB0B15DC633"
    },
    {
      "class": "group",
      "id": "3700530E-DCCF-4663-949B-216547E0E865"
    },
    {
      "class": "group",
      "id": "622AFCA8-0447-4299-B783-7A7AFF9F4960"
    },
    {
      "class": "group",
      "id": "ABA5ACDC-7925-4DB4-BF7E-9A4011ADA3CD"
    }
  ],
  "name": "Artboard",
  "nameIsFixed": false,
  "resizesContent": false,
  "resizingConstraint": 63,
  "resizingType": 0,
  "rotation": 0,
  "shouldBreakMaskChain": false,
  "style": {
    "_class": "style",
    "endDecorationType": 0,
    "miterLimit": 10,
    "startDecorationType": 0
  },
  "verticalRulerData": {
    "_class": "rulerData",
    "base": 0,
    "guides": [
    ]
  }
}