{
  "_class": "shapePath",
  "booleanOperation": -1,
  "do_objectID": "48FD3A5A-48A9-4F78-A968-94577BF400A7",
  "edited": true,
  "exportOptions": {
    "_class": "exportOptions",
    "exportFormats": [
    ],
    "includedLayerIds": [
    ],
    "layerOptions": 0,
    "shouldTrim": false
  },
  "frame": {
    "_class": "rect",
    "constrainProportions": false,
    "height": 13.99983628658549,
    "width": 16,
    "x": 0,
    "y": 0
  },
  "isFlippedHorizontal": false,
  "isFlippedVertical": false,
  "isLocked": false,
  "isVisible": true,
  "layerListExpandedType": 0,
  "name": "Path",
  "nameIsFixed": false,
  "path": {
    "_class": "path",
    "isClosed": true,
    "pointRadiusBehaviour": 1,
    "points": [
      {
        "_class": "curvePoint",
        "cornerRadius": 0,
        "curveFrom": "{0.91605339059327384, 0.14285686429676459}",
        "curveMode": 4,
        "curveTo": "{0.8125, 0.1428568642967647}",
        "hasCurveFrom": true,
        "hasCurveTo": false,
        "point": "{0.8125, 0.1428568642967647}"
      },
      {
        "_class": "curvePoint",
        "cornerRadius": 0,
        "curveFrom": "{1, 0.35714508442935083}",
        "curveMode": 4,
        "curveTo": "{1, 0.23879696838173925}",
        "hasCurveFrom": false,
        "hasCurveTo": true,
        "point": "{1, 0.35714508442935083}"
      },
      {
        "_class": "curvePoint",
        "cornerRadius": 0,
        "curveFrom": "{0.99999999999999989, 0.90405989591502511}",
        "curveMode": 4,
        "curveTo": "{1, 0.78571177986741392}",
        "hasCurveFrom": true,
        "hasCurveTo": false,
        "point": "{1, 0.78571177986741392}"
      },
      {
        "_class": "curvePoint",
        "cornerRadius": 0,
        "curveFrom": "{0.8125, 1}",
        "curveMode": 4,
        "curveTo": "{0.91605339059327373, 0.99999999999999989}",
        "hasCurveFrom": false,
        "hasCurveTo": true,
        "point": "{0.8125, 1}"
      },
      {
        "_class": "curvePoint",
        "cornerRadius": 0,
        "curveFrom": "{0.083946609406726158, 1}",
        "curveMode": 4,
        "curveTo": "{0.1875, 1}",
        "hasCurveFrom": true,
        "hasCurveTo": false,
        "point": "{0.1875, 1}"
      },
      {
        "_class": "curvePoint",
        "cornerRadius": 0,
        "curveFrom": "{0, 0.78571177986741381}",
        "curveMode": 4,
        "curveTo": "{1.0408340855860855e-17, 0.90405989591502522}",
        "hasCurveFrom": false,
        "hasCurveTo": true,
        "point": "{0, 0.78571177986741381}"
      },
      {
        "_class": "curvePoint",
        "cornerRadius": 0,
        "curveFrom": "{-1.3877787807814463e-17, 0.063960069389983221}",
        "curveMode": 4,
        "curveTo": "{0, 0.14285881342172413}",
        "hasCurveFrom": true,
        "hasCurveTo": false,
        "point": "{0, 0.14285881342172413}"
      },
      {
        "_class": "curvePoint",
        "cornerRadius": 0,
        "curveFrom": "{0.12499999999999999, 0}",
        "curveMode": 4,
        "curveTo": "{0.055964406271150791, 0}",
        "hasCurveFrom": false,
        "hasCurveTo": true,
        "point": "{0.12499999999999999, 0}"
      },
      {
        "_class": "curvePoint",
        "cornerRadius": 0,
        "curveFrom": "{0.44250411617251428, 2.3790771589714121e-17}",
        "curveMode": 4,
        "curveTo": "{0.36316717848600488, 0}",
        "hasCurveFrom": true,
        "hasCurveTo": false,
        "point": "{0.36316717848600488, 0}"
      },
      {
        "_class": "curvePoint",
        "cornerRadius": 0,
        "curveFrom": "{0.53983243291334371, 0.14249959472362866}",
        "curveMode": 4,
        "curveTo": "{0.5132537917862362, 0.057067249213569191}",
        "hasCurveFrom": false,
        "hasCurveTo": true,
        "point": "{0.53983243291334371, 0.14249959472362866}"
      }
    ]
  },
  "resizingConstraint": 63,
  "resizingType": 0,
  "rotation": 0,
  "shouldBreakMaskChain": false
}