{
  "_class": "group",
  "do_objectID": "12CCCF38-7CB3-4429-91B1-898C2E0AAB19",
  "exportOptions": {
    "_class": "exportOptions",
    "exportFormats": [
    ],
    "includedLayerIds": [
    ],
    "layerOptions": 0,
    "shouldTrim": false
  },
  "frame": {
    "_class": "rect",
    "constrainProportions": false,
    "height": 28,
    "width": 647,
    "x": 607,
    "y": 702
  },
  "hasClickThrough": false,
  "isFlippedHorizontal": false,
  "isFlippedVertical": false,
  "isLocked": false,
  "isVisible": true,
  "layerListExpandedType": 2,
  "layers": [
    {
      "class": "shapeGroup",
      "id": "3DD905C4-D680-435D-9C0B-7252FD2B321B"
    },
    {
      "class": "shapeGroup",
      "id": "8DA1ED42-9F68-4510-B4E6-DFA65FDB5611"
    },
    {
      "class": "shapeGroup",
      "id": "4B4CD904-7B7D-423A-B418-8C391FB1AE30"
    },
    {
      "class": "text",
      "id": "29D20211-A702-4D83-84CE-1AF695B4B6B2"
    }
  ],
  "name": "new_epic copy 9",
  "nameIsFixed": true,
  "resizingConstraint": 63,
  "resizingType": 0,
  "rotation": 0,
  "shouldBreakMaskChain": false,
  "style": {
    "_class": "style",
    "endDecorationType": 0,
    "miterLimit": 10,
    "startDecorationType": 0
  }
}